{
  "catalogId": "JUNIOR_NULL_M_BONUS_POINTS_Y12_UNDER_NULL_NULL_NULL",
  "publishDate": "2026-04-01T17:08:04.410Z",
  "displayLabel": "Boys' 12 Bonus Points List",
  "listType": "BONUS_POINTS",
  "playerType": "JUNIOR",
  "rankListGender": "M",
  "rankListGenderModifier": null,
  "playerLevel": "NULL",
  "ageRestriction": "Y12",
  "ageRestrictionModifier": "UNDER",
  "matchFormat": null,
  "matchFormatType": null,
  "familyCategory": null,
  "data": [
    {
      "name": "Dmitriy Flyam",
      "uaid": "2018145725",
      "city": "Hallandale Beach",
      "state": "FL",
      "trend": "no change",
      "points": 16562,
      "rank": {
        "national": 1,
        "section": 1,
        "district": 1
      },
      "section": {
        "name": "Florida"
      },
      "district": {
        "name": "Region 8"
      },
      "pointsRecord": {
        "singlesPoints": 10875,
        "doublesPoints": 6657,
        "bonusPoints": 4688
      }
    },
    {
      "name": "Thomas Gamble",
      "uaid": "2018772393",
      "city": "Newport Beach",
      "state": "CA",
      "trend": "down",
      "points": 12535,
      "rank": {
        "national": 2,
        "section": 1,
        "district": 1
      },
      "section": {
        "name": "Southern California"
      },
      "district": {
        "name": "Southern California"
      },
      "pointsRecord": {
        "singlesPoints": 7785,
        "doublesPoints": 8078,
        "bonusPoints": 3538
      }
    },
    {
      "name": "Yifan Nie",
      "uaid": "2019647323",
      "city": "Great Neck",
      "state": "NY",
      "trend": "no change",
      "points": 11532,
      "rank": {
        "national": 3,
        "section": 1,
        "district": 1
      },
      "section": {
        "name": "Eastern"
      },
      "district": {
        "name": "Long Island Region"
      },
      "pointsRecord": {
        "singlesPoints": 7103,
        "doublesPoints": 6781,
        "bonusPoints": 3412
      }
    },
    {
      "name": "Novak Masteller",
      "uaid": "2018462095",
      "city": "Holland",
      "state": "MI",
      "trend": "no change",
      "points": 10281,
      "rank": {
        "national": 4,
        "section": 1,
        "district": 1
      },
      "section": {
        "name": "Midwest"
      },
      "district": {
        "name": "Western Michigan"
      },
      "pointsRecord": {
        "singlesPoints": 6585,
        "doublesPoints": 7358,
        "bonusPoints": 2592
      }
    },
    {
      "name": "Miguel Valencia",
      "uaid": "2017366294",
      "city": "Pinecrest",
      "state": "FL",
      "trend": "down",
      "points": 10212,
      "rank": {
        "national": 5,
        "section": 2,
        "district": 2
      },
      "section": {
        "name": "Florida"
      },
      "district": {
        "name": "Region 8"
      },
      "pointsRecord": {
        "singlesPoints": 6060,
        "doublesPoints": 7253,
        "bonusPoints": 3064
      }
    },
    {
      "name": "Aaron Peng",
      "uaid": "2018472477",
      "city": "Sugar Land",
      "state": "TX",
      "trend": "no change",
      "points": 10149,
      "rank": {
        "national": 6,
        "section": 1,
        "district": 1
      },
      "section": {
        "name": "Texas"
      },
      "district": {
        "name": "Member"
      },
      "pointsRecord": {
        "singlesPoints": 5985,
        "doublesPoints": 7853,
        "bonusPoints": 2986
      }
    },
    {
      "name": "William Zhang",
      "uaid": "2018851224",
      "city": "Paramus",
      "state": "NJ",
      "trend": "no change",
      "points": 10062,
      "rank": {
        "national": 7,
        "section": 2,
        "district": 1
      },
      "section": {
        "name": "Eastern"
      },
      "district": {
        "name": "New Jersey Region"
      },
      "pointsRecord": {
        "singlesPoints": 6758,
        "doublesPoints": 4013,
        "bonusPoints": 2702
      }
    },
    {
      "name": "Milan Nair",
      "uaid": "2017338183",
      "city": "Alpharetta",
      "state": "GA",
      "trend": "down",
      "points": 9718,
      "rank": {
        "national": 8,
        "section": 1,
        "district": 1
      },
      "section": {
        "name": "Southern"
      },
      "district": {
        "name": "Georgia"
      },
      "pointsRecord": {
        "singlesPoints": 5687,
        "doublesPoints": 6810,
        "bonusPoints": 3010
      }
    },
    {
      "name": "William Zhou",
      "uaid": "2018824112",
      "city": "Glendale",
      "state": "CA",
      "trend": "down",
      "points": 9714,
      "rank": {
        "national": 9,
        "section": 2,
        "district": 2
      },
      "section": {
        "name": "Southern California"
      },
      "district": {
        "name": "Southern California"
      },
      "pointsRecord": {
        "singlesPoints": 5124,
        "doublesPoints": 7095,
        "bonusPoints": 3526
      }
    },
    {
      "name": "Jaden Joyner",
      "uaid": "2019045108",
      "city": "WOODLAND HILLS",
      "state": "CA",
      "trend": "down",
      "points": 9256,
      "rank": {
        "national": 10,
        "section": 3,
        "district": 3
      },
      "section": {
        "name": "Southern California"
      },
      "district": {
        "name": "Southern California"
      },
      "pointsRecord": {
        "singlesPoints": 5130,
        "doublesPoints": 6705,
        "bonusPoints": 3120
      }
    },
    {
      "name": "Jesse Goldman",
      "uaid": "2018532154",
      "city": "Paradise Valley",
      "state": "AZ",
      "trend": "down",
      "points": 9236,
      "rank": {
        "national": 11,
        "section": 1,
        "district": 1
      },
      "section": {
        "name": "Southwest"
      },
      "district": {
        "name": "Central Arizona"
      },
      "pointsRecord": {
        "singlesPoints": 6150,
        "doublesPoints": 5551,
        "bonusPoints": 2253
      }
    },
    {
      "name": "Samuel Hartley",
      "uaid": "2018455018",
      "city": "Charlottesville",
      "state": "VA",
      "trend": "up",
      "points": 8890,
      "rank": {
        "national": 12,
        "section": 1,
        "district": 1
      },
      "section": {
        "name": "Mid-Atlantic"
      },
      "district": {
        "name": "Virginia"
      },
      "pointsRecord": {
        "singlesPoints": 5198,
        "doublesPoints": 6960,
        "bonusPoints": 2648
      }
    },
    {
      "name": "Zephyr Zwicker",
      "uaid": "2018814894",
      "city": "Princeton",
      "state": "NJ",
      "trend": "no change",
      "points": 8403,
      "rank": {
        "national": 13,
        "section": 1,
        "district": 1
      },
      "section": {
        "name": "Middle States"
      },
      "district": {
        "name": "New Jersey"
      },
      "pointsRecord": {
        "singlesPoints": 5745,
        "doublesPoints": 2325,
        "bonusPoints": 2309
      }
    },
    {
      "name": "Keanu Agbulos",
      "uaid": "2018197064",
      "city": "Port Saint Lucie",
      "state": "FL",
      "trend": "down",
      "points": 8301,
      "rank": {
        "national": 14,
        "section": 3,
        "district": 1
      },
      "section": {
        "name": "Florida"
      },
      "district": {
        "name": "Region 6"
      },
      "pointsRecord": {
        "singlesPoints": 4775,
        "doublesPoints": 5551,
        "bonusPoints": 2693
      }
    },
    {
      "name": "Zachary Burunov",
      "uaid": "2018478649",
      "city": "Hollywood",
      "state": "FL",
      "trend": "down",
      "points": 7633,
      "rank": {
        "national": 15,
        "section": 4,
        "district": 3
      },
      "section": {
        "name": "Florida"
      },
      "district": {
        "name": "Region 8"
      },
      "pointsRecord": {
        "singlesPoints": 4229,
        "doublesPoints": 5063,
        "bonusPoints": 2645
      }
    },
    {
      "name": "Vihaan Reddy Mereddy",
      "uaid": "2018456003",
      "city": "Prosper",
      "state": "TX",
      "trend": "up",
      "points": 7488,
      "rank": {
        "national": 16,
        "section": 2,
        "district": 2
      },
      "section": {
        "name": "Texas"
      },
      "district": {
        "name": "Member"
      },
      "pointsRecord": {
        "singlesPoints": 4809,
        "doublesPoints": 3518,
        "bonusPoints": 2151
      }
    },
    {
      "name": "Arnav Nadikatla",
      "uaid": "2018359252",
      "city": "Herndon",
      "state": "VA",
      "trend": "down",
      "points": 7068,
      "rank": {
        "national": 17,
        "section": 2,
        "district": 2
      },
      "section": {
        "name": "Mid-Atlantic"
      },
      "district": {
        "name": "Virginia"
      },
      "pointsRecord": {
        "singlesPoints": 3635,
        "doublesPoints": 3593,
        "bonusPoints": 2894
      }
    },
    {
      "name": "Aiden Zhang",
      "uaid": "2018575063",
      "city": "Mc Lean",
      "state": "VA",
      "trend": "no change",
      "points": 7046,
      "rank": {
        "national": 18,
        "section": 3,
        "district": 3
      },
      "section": {
        "name": "Mid-Atlantic"
      },
      "district": {
        "name": "Virginia"
      },
      "pointsRecord": {
        "singlesPoints": 4277,
        "doublesPoints": 3507,
        "bonusPoints": 2243
      }
    },
    {
      "name": "Aleksander Denisov",
      "uaid": "2018260444",
      "city": "Redmond",
      "state": "WA",
      "trend": "down",
      "points": 7045,
      "rank": {
        "national": 19,
        "section": 1,
        "district": 1
      },
      "section": {
        "name": "Pacific NW"
      },
      "district": {
        "name": "Northwest Washington"
      },
      "pointsRecord": {
        "singlesPoints": 3990,
        "doublesPoints": 4440,
        "bonusPoints": 2389
      }
    },
    {
      "name": "Rafael Tirado Rocha",
      "uaid": "2018729792",
      "city": "El Paso",
      "state": "TX",
      "trend": "no change",
      "points": 6913,
      "rank": {
        "national": 20,
        "section": 2,
        "district": 1
      },
      "section": {
        "name": "Southwest"
      },
      "district": {
        "name": "Greater El Paso"
      },
      "pointsRecord": {
        "singlesPoints": 3745,
        "doublesPoints": 5715,
        "bonusPoints": 2311
      }
    }
  ],
  "pagination": {
    "currentPage": 1,
    "pageSize": 20,
    "totalPages": 25,
    "totalResults": 500
  }
}