{
  "catalogId": "JUNIOR_NULL_M_STANDING_Y14_UNDER_NULL_NULL_NULL",
  "publishDate": "2026-04-22T09:35:09.153Z",
  "displayLabel": "Boys' 14 National Standings List (combined)",
  "listType": "STANDING",
  "playerType": "JUNIOR",
  "rankListGender": "M",
  "rankListGenderModifier": null,
  "playerLevel": "NULL",
  "ageRestriction": "Y14",
  "ageRestrictionModifier": "UNDER",
  "matchFormat": null,
  "matchFormatType": null,
  "familyCategory": null,
  "data": [
    {
      "name": "Ishaan Marla",
      "uaid": "2018162184",
      "city": "Mason",
      "state": "OH",
      "trend": "no change",
      "points": 15458,
      "rank": {
        "national": 1,
        "section": 1,
        "district": 1
      },
      "section": {
        "name": "Midwest"
      },
      "district": {
        "name": "Ohio Valley"
      },
      "pointsRecord": {
        "singlesPoints": 10262,
        "doublesPoints": 5657,
        "bonusPoints": 4347
      }
    },
    {
      "name": "Michael Chervenkov",
      "uaid": "2018439006",
      "city": "Canton",
      "state": "GA",
      "trend": "no change",
      "points": 15139,
      "rank": {
        "national": 2,
        "section": 1,
        "district": 1
      },
      "section": {
        "name": "Southern"
      },
      "district": {
        "name": "Georgia"
      },
      "pointsRecord": {
        "singlesPoints": 10200,
        "doublesPoints": 4328,
        "bonusPoints": 4290
      }
    },
    {
      "name": "Nathan Lee",
      "uaid": "2018434213",
      "city": "Tustin",
      "state": "CA",
      "trend": "no change",
      "points": 11348,
      "rank": {
        "national": 3,
        "section": 1,
        "district": 1
      },
      "section": {
        "name": "Southern California"
      },
      "district": {
        "name": "Southern California"
      },
      "pointsRecord": {
        "singlesPoints": 7038,
        "doublesPoints": 8160,
        "bonusPoints": 3086
      }
    },
    {
      "name": "Smyan Thuta",
      "uaid": "2018359212",
      "city": "San Jose",
      "state": "CA",
      "trend": "no change",
      "points": 10096,
      "rank": {
        "national": 4,
        "section": 1,
        "district": 1
      },
      "section": {
        "name": "Northern California"
      },
      "district": {
        "name": "Northern California"
      },
      "pointsRecord": {
        "singlesPoints": 5904,
        "doublesPoints": 4891,
        "bonusPoints": 3458
      }
    },
    {
      "name": "Pranav Vignesh",
      "uaid": "2018345610",
      "city": "Sunnyvale",
      "state": "CA",
      "trend": "no change",
      "points": 9579,
      "rank": {
        "national": 5,
        "section": 2,
        "district": 2
      },
      "section": {
        "name": "Northern California"
      },
      "district": {
        "name": "Northern California"
      },
      "pointsRecord": {
        "singlesPoints": 6483,
        "doublesPoints": 3585,
        "bonusPoints": 2558
      }
    },
    {
      "name": "Jacques Chen",
      "uaid": "2017374927",
      "city": "Jericho",
      "state": "NY",
      "trend": "no change",
      "points": 9341,
      "rank": {
        "national": 6,
        "section": 1,
        "district": 1
      },
      "section": {
        "name": "Eastern"
      },
      "district": {
        "name": "Long Island Region"
      },
      "pointsRecord": {
        "singlesPoints": 5498,
        "doublesPoints": 8640,
        "bonusPoints": 2547
      }
    },
    {
      "name": "Tanmay Konduri",
      "uaid": "2018149191",
      "city": "Cupertino",
      "state": "CA",
      "trend": "no change",
      "points": 9303,
      "rank": {
        "national": 7,
        "section": 3,
        "district": 3
      },
      "section": {
        "name": "Northern California"
      },
      "district": {
        "name": "Northern California"
      },
      "pointsRecord": {
        "singlesPoints": 5522,
        "doublesPoints": 7321,
        "bonusPoints": 2683
      }
    },
    {
      "name": "Evaan Mohan",
      "uaid": "2018121632",
      "city": "Shelton",
      "state": "CT",
      "trend": "no change",
      "points": 8970,
      "rank": {
        "national": 8,
        "section": 1,
        "district": 1
      },
      "section": {
        "name": "New England"
      },
      "district": {
        "name": "Connecticut"
      },
      "pointsRecord": {
        "singlesPoints": 5850,
        "doublesPoints": 6302,
        "bonusPoints": 2175
      }
    },
    {
      "name": "Alexander Anderson",
      "uaid": "2017302122",
      "city": "Davis",
      "state": "CA",
      "trend": "no change",
      "points": 8752,
      "rank": {
        "national": 9,
        "section": 4,
        "district": 4
      },
      "section": {
        "name": "Northern California"
      },
      "district": {
        "name": "Northern California"
      },
      "pointsRecord": {
        "singlesPoints": 5884,
        "doublesPoints": 5220,
        "bonusPoints": 2085
      }
    },
    {
      "name": "Rex Kulman",
      "uaid": "2017328469",
      "city": "Fort Lauderdale",
      "state": "FL",
      "trend": "down",
      "points": 8644,
      "rank": {
        "national": 10,
        "section": 1,
        "district": 1
      },
      "section": {
        "name": "Florida"
      },
      "district": {
        "name": "Region 8"
      },
      "pointsRecord": {
        "singlesPoints": 5098,
        "doublesPoints": 2836,
        "bonusPoints": 3121
      }
    },
    {
      "name": "Matthew Finn",
      "uaid": "2017059361",
      "city": "Hagerstown",
      "state": "MD",
      "trend": "no change",
      "points": 8627,
      "rank": {
        "national": 11,
        "section": 1,
        "district": 1
      },
      "section": {
        "name": "Mid-Atlantic"
      },
      "district": {
        "name": "Maryland"
      },
      "pointsRecord": {
        "singlesPoints": 5430,
        "doublesPoints": 5476,
        "bonusPoints": 2376
      }
    },
    {
      "name": "Nikola Bogojevic",
      "uaid": "2018578725",
      "city": "Lake Worth",
      "state": "FL",
      "trend": "no change",
      "points": 8014,
      "rank": {
        "national": 12,
        "section": 2,
        "district": 1
      },
      "section": {
        "name": "Florida"
      },
      "district": {
        "name": "Region 6"
      },
      "pointsRecord": {
        "singlesPoints": 4359,
        "doublesPoints": 4989,
        "bonusPoints": 2907
      }
    },
    {
      "name": "Andy Wu",
      "uaid": "2018638132",
      "city": "Diamond Bar",
      "state": "CA",
      "trend": "no change",
      "points": 7985,
      "rank": {
        "national": 13,
        "section": 2,
        "district": 2
      },
      "section": {
        "name": "Southern California"
      },
      "district": {
        "name": "Southern California"
      },
      "pointsRecord": {
        "singlesPoints": 5223,
        "doublesPoints": 4892,
        "bonusPoints": 2028
      }
    },
    {
      "name": "Yi He Gao",
      "uaid": "2018842457",
      "city": "Rancho Santa Fe",
      "state": "CA",
      "trend": "no change",
      "points": 7633,
      "rank": {
        "national": 14,
        "section": 3,
        "district": 1
      },
      "section": {
        "name": "Southern California"
      },
      "district": {
        "name": "San Diego"
      },
      "pointsRecord": {
        "singlesPoints": 4530,
        "doublesPoints": 3848,
        "bonusPoints": 2526
      }
    },
    {
      "name": "Jason Ye",
      "uaid": "2018645536",
      "city": "Redmond",
      "state": "WA",
      "trend": "no change",
      "points": 7514,
      "rank": {
        "national": 15,
        "section": 1,
        "district": 1
      },
      "section": {
        "name": "Pacific NW"
      },
      "district": {
        "name": "Northwest Washington"
      },
      "pointsRecord": {
        "singlesPoints": 4350,
        "doublesPoints": 4230,
        "bonusPoints": 2529
      }
    },
    {
      "name": "Tony Xu",
      "uaid": "2018254282",
      "city": "Devens",
      "state": "MA",
      "trend": "no change",
      "points": 7482,
      "rank": {
        "national": 16,
        "section": 2,
        "district": 1
      },
      "section": {
        "name": "New England"
      },
      "district": {
        "name": "Eastern Massachusetts"
      },
      "pointsRecord": {
        "singlesPoints": 4305,
        "doublesPoints": 10050,
        "bonusPoints": 1669
      }
    },
    {
      "name": "Wyatt Markham",
      "uaid": "2018179450",
      "city": "Lawrence",
      "state": "KS",
      "trend": "no change",
      "points": 7418,
      "rank": {
        "national": 17,
        "section": 1,
        "district": 1
      },
      "section": {
        "name": "Missouri Valley"
      },
      "district": {
        "name": "Heart of America"
      },
      "pointsRecord": {
        "singlesPoints": 4103,
        "doublesPoints": 6708,
        "bonusPoints": 2309
      }
    },
    {
      "name": "Jason Zhao",
      "uaid": "2017291076",
      "city": "Katy",
      "state": "TX",
      "trend": "no change",
      "points": 6985,
      "rank": {
        "national": 18,
        "section": 1,
        "district": 1
      },
      "section": {
        "name": "Texas"
      },
      "district": {
        "name": "Member"
      },
      "pointsRecord": {
        "singlesPoints": 4091,
        "doublesPoints": 6585,
        "bonusPoints": 1906
      }
    },
    {
      "name": "Max D Smith",
      "uaid": "2018273871",
      "city": "PARKLAND",
      "state": "FL",
      "trend": "no change",
      "points": 6890,
      "rank": {
        "national": 19,
        "section": 3,
        "district": 1
      },
      "section": {
        "name": "Florida"
      },
      "district": {
        "name": "Region 4"
      },
      "pointsRecord": {
        "singlesPoints": 3608,
        "doublesPoints": 8358,
        "bonusPoints": 2028
      }
    },
    {
      "name": "Krish Advani",
      "uaid": "2018546638",
      "city": "Bradenton",
      "state": "FL",
      "trend": "no change",
      "points": 6805,
      "rank": {
        "national": 20,
        "section": 4,
        "district": 1
      },
      "section": {
        "name": "Florida"
      },
      "district": {
        "name": "Region 5"
      },
      "pointsRecord": {
        "singlesPoints": 4125,
        "doublesPoints": 4478,
        "bonusPoints": 2008
      }
    }
  ],
  "pagination": {
    "currentPage": 1,
    "pageSize": 20,
    "totalPages": 500,
    "totalResults": 10000
  }
}