{
  "catalogId": "JUNIOR_NULL_F_SEEDING_Y12_UNDER_DOUBLES_INDIVIDUAL_NULL",
  "publishDate": "2026-04-22T10:02:08.564Z",
  "displayLabel": "Girls' 12 National Seeding List (Doubles)",
  "listType": "SEEDING",
  "playerType": "JUNIOR",
  "rankListGender": "F",
  "rankListGenderModifier": null,
  "playerLevel": "NULL",
  "ageRestriction": "Y12",
  "ageRestrictionModifier": "UNDER",
  "matchFormat": "DOUBLES",
  "matchFormatType": "INDIVIDUAL",
  "familyCategory": null,
  "data": [
    {
      "name": "Emma Li",
      "uaid": "2018556043",
      "city": "WESTFIELD",
      "state": "NJ",
      "trend": "no change",
      "points": 10838,
      "rank": {
        "national": 1,
        "section": 1,
        "district": 1
      },
      "section": {
        "name": "Eastern"
      },
      "district": {
        "name": "New Jersey Region"
      },
      "pointsRecord": {
        "singlesPoints": 0,
        "doublesPoints": 10838,
        "bonusPoints": 0
      }
    },
    {
      "name": "Anna Victoria Sandru",
      "uaid": "2018390685",
      "city": "Freehold",
      "state": "NJ",
      "trend": "no change",
      "points": 10748,
      "rank": {
        "national": 2,
        "section": 1,
        "district": 1
      },
      "section": {
        "name": "Middle States"
      },
      "district": {
        "name": "New Jersey"
      },
      "pointsRecord": {
        "singlesPoints": 0,
        "doublesPoints": 10748,
        "bonusPoints": 0
      }
    },
    {
      "name": "Summer Yang",
      "uaid": "2018343122",
      "city": "Mc Lean",
      "state": "VA",
      "trend": "no change",
      "points": 9525,
      "rank": {
        "national": 3,
        "section": 1,
        "district": 1
      },
      "section": {
        "name": "Mid-Atlantic"
      },
      "district": {
        "name": "Virginia"
      },
      "pointsRecord": {
        "singlesPoints": 0,
        "doublesPoints": 9525,
        "bonusPoints": 0
      }
    },
    {
      "name": "Lucy Jiang",
      "uaid": "2018930549",
      "city": "Rancho Palos Verdes",
      "state": "CA",
      "trend": "no change",
      "points": 9450,
      "rank": {
        "national": 4,
        "section": 1,
        "district": 1
      },
      "section": {
        "name": "Southern California"
      },
      "district": {
        "name": "Southern California"
      },
      "pointsRecord": {
        "singlesPoints": 0,
        "doublesPoints": 9450,
        "bonusPoints": 0
      }
    },
    {
      "name": "Valentina Singh Carvajal",
      "uaid": "2018471033",
      "city": "Morristown",
      "state": "NJ",
      "trend": "no change",
      "points": 9264,
      "rank": {
        "national": 5,
        "section": 2,
        "district": 2
      },
      "section": {
        "name": "Eastern"
      },
      "district": {
        "name": "New Jersey Region"
      },
      "pointsRecord": {
        "singlesPoints": 0,
        "doublesPoints": 9264,
        "bonusPoints": 0
      }
    },
    {
      "name": "Ayenxavia Calugay",
      "uaid": "2018160421",
      "city": "Las Vegas",
      "state": "NV",
      "trend": "no change",
      "points": 8865,
      "rank": {
        "national": 6,
        "section": 1,
        "district": 1
      },
      "section": {
        "name": "Intermountain"
      },
      "district": {
        "name": "Nevada"
      },
      "pointsRecord": {
        "singlesPoints": 0,
        "doublesPoints": 8865,
        "bonusPoints": 0
      }
    },
    {
      "name": "Mikayla Noel",
      "uaid": "2017331395",
      "city": "Winston Salem",
      "state": "NC",
      "trend": "no change",
      "points": 8445,
      "rank": {
        "national": 7,
        "section": 1,
        "district": 1
      },
      "section": {
        "name": "Southern"
      },
      "district": {
        "name": "North Carolina"
      },
      "pointsRecord": {
        "singlesPoints": 0,
        "doublesPoints": 8445,
        "bonusPoints": 0
      }
    },
    {
      "name": "Mary Podkhyneychenko",
      "uaid": "2018596613",
      "city": "New York",
      "state": "NY",
      "trend": "no change",
      "points": 8250,
      "rank": {
        "national": 8,
        "section": 3,
        "district": 1
      },
      "section": {
        "name": "Eastern"
      },
      "district": {
        "name": "Metropolitan Region"
      },
      "pointsRecord": {
        "singlesPoints": 0,
        "doublesPoints": 8250,
        "bonusPoints": 0
      }
    },
    {
      "name": "Cathryn Chartrand",
      "uaid": "2018511673",
      "city": "Saratoga Springs",
      "state": "NY",
      "trend": "no change",
      "points": 8146,
      "rank": {
        "national": 9,
        "section": 4,
        "district": 1
      },
      "section": {
        "name": "Eastern"
      },
      "district": {
        "name": "Northern Region"
      },
      "pointsRecord": {
        "singlesPoints": 0,
        "doublesPoints": 8146,
        "bonusPoints": 0
      }
    },
    {
      "name": "Grace Malhotra",
      "uaid": "2018932936",
      "city": "Rolling Hills Estates",
      "state": "CA",
      "trend": "no change",
      "points": 7605,
      "rank": {
        "national": 10,
        "section": 2,
        "district": 2
      },
      "section": {
        "name": "Southern California"
      },
      "district": {
        "name": "Southern California"
      },
      "pointsRecord": {
        "singlesPoints": 0,
        "doublesPoints": 7605,
        "bonusPoints": 0
      }
    },
    {
      "name": "Lindy Zhou",
      "uaid": "2018826225",
      "city": "Glendale",
      "state": "CA",
      "trend": "no change",
      "points": 7456,
      "rank": {
        "national": 11,
        "section": 3,
        "district": 3
      },
      "section": {
        "name": "Southern California"
      },
      "district": {
        "name": "Southern California"
      },
      "pointsRecord": {
        "singlesPoints": 0,
        "doublesPoints": 7456,
        "bonusPoints": 0
      }
    },
    {
      "name": "Alara Buyukuncu",
      "uaid": "2018853771",
      "city": "Irvine",
      "state": "CA",
      "trend": "no change",
      "points": 7335,
      "rank": {
        "national": 12,
        "section": 4,
        "district": 4
      },
      "section": {
        "name": "Southern California"
      },
      "district": {
        "name": "Southern California"
      },
      "pointsRecord": {
        "singlesPoints": 0,
        "doublesPoints": 7335,
        "bonusPoints": 0
      }
    },
    {
      "name": "Elizabeth Higgins",
      "uaid": "2018117279",
      "city": "Raleigh",
      "state": "NC",
      "trend": "no change",
      "points": 7110,
      "rank": {
        "national": 13,
        "section": 2,
        "district": 2
      },
      "section": {
        "name": "Southern"
      },
      "district": {
        "name": "North Carolina"
      },
      "pointsRecord": {
        "singlesPoints": 0,
        "doublesPoints": 7110,
        "bonusPoints": 0
      }
    },
    {
      "name": "Chloe Anthony",
      "uaid": "2018525158",
      "city": "Lakeville",
      "state": "MA",
      "trend": "no change",
      "points": 7013,
      "rank": {
        "national": 14,
        "section": 1,
        "district": 1
      },
      "section": {
        "name": "New England"
      },
      "district": {
        "name": "Eastern Massachusetts"
      },
      "pointsRecord": {
        "singlesPoints": 0,
        "doublesPoints": 7013,
        "bonusPoints": 0
      }
    },
    {
      "name": "Vihana Thasen",
      "uaid": "2018420242",
      "city": "Weston",
      "state": "FL",
      "trend": "no change",
      "points": 6660,
      "rank": {
        "national": 15,
        "section": 1,
        "district": 1
      },
      "section": {
        "name": "Florida"
      },
      "district": {
        "name": "Region 8"
      },
      "pointsRecord": {
        "singlesPoints": 0,
        "doublesPoints": 6660,
        "bonusPoints": 0
      }
    },
    {
      "name": "Evita Barjolo",
      "uaid": "2018790929",
      "city": "Zelienople",
      "state": "PA",
      "trend": "no change",
      "points": 6548,
      "rank": {
        "national": 16,
        "section": 2,
        "district": 1
      },
      "section": {
        "name": "Middle States"
      },
      "district": {
        "name": "Allegheny Mountain"
      },
      "pointsRecord": {
        "singlesPoints": 0,
        "doublesPoints": 6548,
        "bonusPoints": 0
      }
    },
    {
      "name": "Tabitha Wasserman",
      "uaid": "2018457144",
      "city": "West Lake Hills",
      "state": "TX",
      "trend": "no change",
      "points": 6444,
      "rank": {
        "national": 17,
        "section": 1,
        "district": 1
      },
      "section": {
        "name": "Texas"
      },
      "district": {
        "name": "Member"
      },
      "pointsRecord": {
        "singlesPoints": 0,
        "doublesPoints": 6444,
        "bonusPoints": 0
      }
    },
    {
      "name": "Rhiya Chiang",
      "uaid": "2018703156",
      "city": "Suwanee",
      "state": "GA",
      "trend": "no change",
      "points": 6249,
      "rank": {
        "national": 18,
        "section": 3,
        "district": 1
      },
      "section": {
        "name": "Southern"
      },
      "district": {
        "name": "Georgia"
      },
      "pointsRecord": {
        "singlesPoints": 0,
        "doublesPoints": 6249,
        "bonusPoints": 0
      }
    },
    {
      "name": "Lola Looney",
      "uaid": "2018906801",
      "city": "College Park",
      "state": "MD",
      "trend": "no change",
      "points": 6150,
      "rank": {
        "national": 19,
        "section": 2,
        "district": 1
      },
      "section": {
        "name": "Mid-Atlantic"
      },
      "district": {
        "name": "Maryland"
      },
      "pointsRecord": {
        "singlesPoints": 0,
        "doublesPoints": 6150,
        "bonusPoints": 0
      }
    },
    {
      "name": "Catherine Chan",
      "uaid": "2018581199",
      "city": "Manhasset",
      "state": "NY",
      "trend": "no change",
      "points": 6068,
      "rank": {
        "national": 20,
        "section": 5,
        "district": 1
      },
      "section": {
        "name": "Eastern"
      },
      "district": {
        "name": "Long Island Region"
      },
      "pointsRecord": {
        "singlesPoints": 0,
        "doublesPoints": 6068,
        "bonusPoints": 0
      }
    }
  ],
  "pagination": {
    "currentPage": 1,
    "pageSize": 20,
    "totalPages": 70,
    "totalResults": 1394
  }
}