{
  "catalogId": "JUNIOR_NULL_F_SEEDING_Y16_UNDER_DOUBLES_INDIVIDUAL_NULL",
  "publishDate": "2026-04-22T10:00:37.160Z",
  "displayLabel": "Girls' 16 National Seeding List (Doubles)",
  "listType": "SEEDING",
  "playerType": "JUNIOR",
  "rankListGender": "F",
  "rankListGenderModifier": null,
  "playerLevel": "NULL",
  "ageRestriction": "Y16",
  "ageRestrictionModifier": "UNDER",
  "matchFormat": "DOUBLES",
  "matchFormatType": "INDIVIDUAL",
  "familyCategory": null,
  "data": [
    {
      "name": "Emery Combs",
      "uaid": "2017258421",
      "city": "Conway",
      "state": "SC",
      "trend": "no change",
      "points": 10200,
      "rank": {
        "national": 1,
        "section": 1,
        "district": 1
      },
      "section": {
        "name": "Southern"
      },
      "district": {
        "name": "South Carolina"
      },
      "pointsRecord": {
        "singlesPoints": 0,
        "doublesPoints": 10200,
        "bonusPoints": 0
      }
    },
    {
      "name": "Jordyn Hazelitt",
      "uaid": "2010870157",
      "city": "Henderson",
      "state": "NV",
      "trend": "no change",
      "points": 9285,
      "rank": {
        "national": 2,
        "section": 1,
        "district": 1
      },
      "section": {
        "name": "Intermountain"
      },
      "district": {
        "name": "Nevada"
      },
      "pointsRecord": {
        "singlesPoints": 0,
        "doublesPoints": 9285,
        "bonusPoints": 0
      }
    },
    {
      "name": "Kingsley Wolf",
      "uaid": "2010834734",
      "city": "Pacific Palisades",
      "state": "CA",
      "trend": "no change",
      "points": 9248,
      "rank": {
        "national": 3,
        "section": 1,
        "district": 1
      },
      "section": {
        "name": "Southern California"
      },
      "district": {
        "name": "Southern California"
      },
      "pointsRecord": {
        "singlesPoints": 0,
        "doublesPoints": 9248,
        "bonusPoints": 0
      }
    },
    {
      "name": "Emery June Martin",
      "uaid": "2010725531",
      "city": "Los Angeles",
      "state": "CA",
      "trend": "no change",
      "points": 8925,
      "rank": {
        "national": 4,
        "section": 2,
        "district": 2
      },
      "section": {
        "name": "Southern California"
      },
      "district": {
        "name": "Southern California"
      },
      "pointsRecord": {
        "singlesPoints": 0,
        "doublesPoints": 8925,
        "bonusPoints": 0
      }
    },
    {
      "name": "Sadira Ouyang",
      "uaid": "2017148226",
      "city": "Atlanta",
      "state": "GA",
      "trend": "no change",
      "points": 8865,
      "rank": {
        "national": 5,
        "section": 2,
        "district": 1
      },
      "section": {
        "name": "Southern"
      },
      "district": {
        "name": "Georgia"
      },
      "pointsRecord": {
        "singlesPoints": 0,
        "doublesPoints": 8865,
        "bonusPoints": 0
      }
    },
    {
      "name": "Evelynn Kwak",
      "uaid": "2017112403",
      "city": "Hasbrouck Heights",
      "state": "NJ",
      "trend": "no change",
      "points": 8858,
      "rank": {
        "national": 6,
        "section": 1,
        "district": 1
      },
      "section": {
        "name": "Eastern"
      },
      "district": {
        "name": "New Jersey Region"
      },
      "pointsRecord": {
        "singlesPoints": 0,
        "doublesPoints": 8858,
        "bonusPoints": 0
      }
    },
    {
      "name": "Sammie Mercer",
      "uaid": "2017371955",
      "city": "Huntington",
      "state": "WV",
      "trend": "no change",
      "points": 8760,
      "rank": {
        "national": 7,
        "section": 1,
        "district": 1
      },
      "section": {
        "name": "Midwest"
      },
      "district": {
        "name": "Ohio Valley"
      },
      "pointsRecord": {
        "singlesPoints": 0,
        "doublesPoints": 8760,
        "bonusPoints": 0
      }
    },
    {
      "name": "Enya Hamilton",
      "uaid": "2010700774",
      "city": "FRISCO",
      "state": "TX",
      "trend": "no change",
      "points": 8678,
      "rank": {
        "national": 8,
        "section": 1,
        "district": 1
      },
      "section": {
        "name": "Texas"
      },
      "district": {
        "name": "Member"
      },
      "pointsRecord": {
        "singlesPoints": 0,
        "doublesPoints": 8678,
        "bonusPoints": 0
      }
    },
    {
      "name": "Sylvana Jalbert",
      "uaid": "2017340275",
      "city": "Mount Airy",
      "state": "MD",
      "trend": "no change",
      "points": 8648,
      "rank": {
        "national": 9,
        "section": 1,
        "district": 1
      },
      "section": {
        "name": "Mid-Atlantic"
      },
      "district": {
        "name": "Maryland"
      },
      "pointsRecord": {
        "singlesPoints": 0,
        "doublesPoints": 8648,
        "bonusPoints": 0
      }
    },
    {
      "name": "Elle Groslimond",
      "uaid": "2017241813",
      "city": "Atlanta",
      "state": "GA",
      "trend": "no change",
      "points": 8040,
      "rank": {
        "national": 10,
        "section": 3,
        "district": 2
      },
      "section": {
        "name": "Southern"
      },
      "district": {
        "name": "Georgia"
      },
      "pointsRecord": {
        "singlesPoints": 0,
        "doublesPoints": 8040,
        "bonusPoints": 0
      }
    },
    {
      "name": "Heidi Polasek",
      "uaid": "2018576344",
      "city": "Chapel Hill",
      "state": "NC",
      "trend": "no change",
      "points": 8010,
      "rank": {
        "national": 11,
        "section": 4,
        "district": 1
      },
      "section": {
        "name": "Southern"
      },
      "district": {
        "name": "North Carolina"
      },
      "pointsRecord": {
        "singlesPoints": 0,
        "doublesPoints": 8010,
        "bonusPoints": 0
      }
    },
    {
      "name": "Vibha Gogineni",
      "uaid": "2017161347",
      "city": "Mason",
      "state": "OH",
      "trend": "no change",
      "points": 7800,
      "rank": {
        "national": 12,
        "section": 2,
        "district": 2
      },
      "section": {
        "name": "Midwest"
      },
      "district": {
        "name": "Ohio Valley"
      },
      "pointsRecord": {
        "singlesPoints": 0,
        "doublesPoints": 7800,
        "bonusPoints": 0
      }
    },
    {
      "name": "Meher Rao",
      "uaid": "2017331728",
      "city": "Powell",
      "state": "OH",
      "trend": "no change",
      "points": 7800,
      "rank": {
        "national": 13,
        "section": 3,
        "district": 3
      },
      "section": {
        "name": "Midwest"
      },
      "district": {
        "name": "Ohio Valley"
      },
      "pointsRecord": {
        "singlesPoints": 0,
        "doublesPoints": 7800,
        "bonusPoints": 0
      }
    },
    {
      "name": "Adelyn Gross",
      "uaid": "2010778346",
      "city": "Saint Louis",
      "state": "MO",
      "trend": "no change",
      "points": 7725,
      "rank": {
        "national": 14,
        "section": 1,
        "district": 1
      },
      "section": {
        "name": "Missouri Valley"
      },
      "district": {
        "name": "St. Louis"
      },
      "pointsRecord": {
        "singlesPoints": 0,
        "doublesPoints": 7725,
        "bonusPoints": 0
      }
    },
    {
      "name": "Shristi Selvan",
      "uaid": "2017125158",
      "city": "Laurel",
      "state": "MD",
      "trend": "no change",
      "points": 7650,
      "rank": {
        "national": 15,
        "section": 2,
        "district": 2
      },
      "section": {
        "name": "Mid-Atlantic"
      },
      "district": {
        "name": "Maryland"
      },
      "pointsRecord": {
        "singlesPoints": 0,
        "doublesPoints": 7650,
        "bonusPoints": 0
      }
    },
    {
      "name": "PRIYANKA TALLAMRAJU",
      "uaid": "2010945469",
      "city": "Munster",
      "state": "IN",
      "trend": "no change",
      "points": 7410,
      "rank": {
        "national": 16,
        "section": 4,
        "district": 1
      },
      "section": {
        "name": "Midwest"
      },
      "district": {
        "name": "Northern Indiana"
      },
      "pointsRecord": {
        "singlesPoints": 0,
        "doublesPoints": 7410,
        "bonusPoints": 0
      }
    },
    {
      "name": "Alicia Londono",
      "uaid": "2010888290",
      "city": "Phoenix",
      "state": "AZ",
      "trend": "no change",
      "points": 7410,
      "rank": {
        "national": 17,
        "section": 1,
        "district": 1
      },
      "section": {
        "name": "Southwest"
      },
      "district": {
        "name": "Central Arizona"
      },
      "pointsRecord": {
        "singlesPoints": 0,
        "doublesPoints": 7410,
        "bonusPoints": 0
      }
    },
    {
      "name": "Grace Hong",
      "uaid": "2017189287",
      "city": "Edison",
      "state": "NJ",
      "trend": "no change",
      "points": 7313,
      "rank": {
        "national": 18,
        "section": 2,
        "district": 2
      },
      "section": {
        "name": "Eastern"
      },
      "district": {
        "name": "New Jersey Region"
      },
      "pointsRecord": {
        "singlesPoints": 0,
        "doublesPoints": 7313,
        "bonusPoints": 0
      }
    },
    {
      "name": "Masha Semenova",
      "uaid": "2017270184",
      "city": "Randolph",
      "state": "NJ",
      "trend": "no change",
      "points": 7163,
      "rank": {
        "national": 19,
        "section": 3,
        "district": 3
      },
      "section": {
        "name": "Eastern"
      },
      "district": {
        "name": "New Jersey Region"
      },
      "pointsRecord": {
        "singlesPoints": 0,
        "doublesPoints": 7163,
        "bonusPoints": 0
      }
    },
    {
      "name": "Olivia de Los Reyes",
      "uaid": "2018133128",
      "city": "Scarsdale",
      "state": "NY",
      "trend": "no change",
      "points": 6900,
      "rank": {
        "national": 20,
        "section": 4,
        "district": 1
      },
      "section": {
        "name": "Eastern"
      },
      "district": {
        "name": "Southern Region"
      },
      "pointsRecord": {
        "singlesPoints": 0,
        "doublesPoints": 6900,
        "bonusPoints": 0
      }
    }
  ],
  "pagination": {
    "currentPage": 1,
    "pageSize": 20,
    "totalPages": 254,
    "totalResults": 5072
  }
}