{
  "catalogId": "JUNIOR_NULL_F_SEEDING_Y16_UNDER_SINGLES_NULL_NULL",
  "publishDate": "2026-04-22T09:11:50.149Z",
  "displayLabel": "Girls' 16 National Seeding List",
  "listType": "SEEDING",
  "playerType": "JUNIOR",
  "rankListGender": "F",
  "rankListGenderModifier": null,
  "playerLevel": "NULL",
  "ageRestriction": "Y16",
  "ageRestrictionModifier": "UNDER",
  "matchFormat": "SINGLES",
  "matchFormatType": null,
  "familyCategory": null,
  "data": [
    {
      "name": "Sylvana Jalbert",
      "uaid": "2017340275",
      "city": "Mount Airy",
      "state": "MD",
      "trend": "no change",
      "points": 13797,
      "rank": {
        "national": 1,
        "section": 1,
        "district": 1
      },
      "section": {
        "name": "Mid-Atlantic"
      },
      "district": {
        "name": "Maryland"
      },
      "pointsRecord": {
        "singlesPoints": 10778,
        "doublesPoints": 0,
        "bonusPoints": 3019
      }
    },
    {
      "name": "Shristi Selvan",
      "uaid": "2017125158",
      "city": "Laurel",
      "state": "MD",
      "trend": "no change",
      "points": 13004,
      "rank": {
        "national": 2,
        "section": 2,
        "district": 2
      },
      "section": {
        "name": "Mid-Atlantic"
      },
      "district": {
        "name": "Maryland"
      },
      "pointsRecord": {
        "singlesPoints": 10088,
        "doublesPoints": 0,
        "bonusPoints": 2916
      }
    },
    {
      "name": "Avita Beitler",
      "uaid": "2018790809",
      "city": "Scandia",
      "state": "MN",
      "trend": "no change",
      "points": 11520,
      "rank": {
        "national": 3,
        "section": 1,
        "district": 1
      },
      "section": {
        "name": "Northern"
      },
      "district": {
        "name": "Member"
      },
      "pointsRecord": {
        "singlesPoints": 7890,
        "doublesPoints": 0,
        "bonusPoints": 3630
      }
    },
    {
      "name": "Vanessa Kruse",
      "uaid": "2017195119",
      "city": "Saint Augustine",
      "state": "FL",
      "trend": "no change",
      "points": 10274,
      "rank": {
        "national": 4,
        "section": 1,
        "district": 1
      },
      "section": {
        "name": "Florida"
      },
      "district": {
        "name": "Region 2"
      },
      "pointsRecord": {
        "singlesPoints": 7650,
        "doublesPoints": 0,
        "bonusPoints": 2624
      }
    },
    {
      "name": "Yilin Chen",
      "uaid": "2010516389",
      "city": "San Diego",
      "state": "CA",
      "trend": "no change",
      "points": 10250,
      "rank": {
        "national": 5,
        "section": 1,
        "district": 1
      },
      "section": {
        "name": "Southern California"
      },
      "district": {
        "name": "San Diego"
      },
      "pointsRecord": {
        "singlesPoints": 7410,
        "doublesPoints": 0,
        "bonusPoints": 2840
      }
    },
    {
      "name": "Julia Seversen",
      "uaid": "2010870898",
      "city": "Trabuco Canyon",
      "state": "CA",
      "trend": "no change",
      "points": 9973,
      "rank": {
        "national": 6,
        "section": 2,
        "district": 1
      },
      "section": {
        "name": "Southern California"
      },
      "district": {
        "name": "Southern California"
      },
      "pointsRecord": {
        "singlesPoints": 7575,
        "doublesPoints": 0,
        "bonusPoints": 2398
      }
    },
    {
      "name": "Olivia Lin",
      "uaid": "2018501488",
      "city": "Lexington",
      "state": "MA",
      "trend": "no change",
      "points": 9174,
      "rank": {
        "national": 7,
        "section": 1,
        "district": 1
      },
      "section": {
        "name": "New England"
      },
      "district": {
        "name": "Eastern Massachusetts"
      },
      "pointsRecord": {
        "singlesPoints": 7350,
        "doublesPoints": 0,
        "bonusPoints": 1824
      }
    },
    {
      "name": "Nikol Davletshina",
      "uaid": "2018525096",
      "city": "Boca Raton",
      "state": "FL",
      "trend": "no change",
      "points": 8999,
      "rank": {
        "national": 8,
        "section": 2,
        "district": 1
      },
      "section": {
        "name": "Florida"
      },
      "district": {
        "name": "Region 6"
      },
      "pointsRecord": {
        "singlesPoints": 6240,
        "doublesPoints": 0,
        "bonusPoints": 2759
      }
    },
    {
      "name": "Sadira Ouyang",
      "uaid": "2017148226",
      "city": "Atlanta",
      "state": "GA",
      "trend": "no change",
      "points": 8678,
      "rank": {
        "national": 9,
        "section": 1,
        "district": 1
      },
      "section": {
        "name": "Southern"
      },
      "district": {
        "name": "Georgia"
      },
      "pointsRecord": {
        "singlesPoints": 5738,
        "doublesPoints": 0,
        "bonusPoints": 2940
      }
    },
    {
      "name": "Natalie Frisbie",
      "uaid": "2010772753",
      "city": "Gallatin",
      "state": "TN",
      "trend": "no change",
      "points": 8675,
      "rank": {
        "national": 10,
        "section": 2,
        "district": 1
      },
      "section": {
        "name": "Southern"
      },
      "district": {
        "name": "Tennessee"
      },
      "pointsRecord": {
        "singlesPoints": 6151,
        "doublesPoints": 0,
        "bonusPoints": 2524
      }
    },
    {
      "name": "Anastasiya Muravia",
      "uaid": "2018286408",
      "city": "Boynton Beach",
      "state": "FL",
      "trend": "no change",
      "points": 8403,
      "rank": {
        "national": 11,
        "section": 3,
        "district": 2
      },
      "section": {
        "name": "Florida"
      },
      "district": {
        "name": "Region 6"
      },
      "pointsRecord": {
        "singlesPoints": 6600,
        "doublesPoints": 0,
        "bonusPoints": 1803
      }
    },
    {
      "name": "Molly Widlansky",
      "uaid": "2018174995",
      "city": "Parkland",
      "state": "FL",
      "trend": "no change",
      "points": 8262,
      "rank": {
        "national": 12,
        "section": 4,
        "district": 1
      },
      "section": {
        "name": "Florida"
      },
      "district": {
        "name": "Region 8"
      },
      "pointsRecord": {
        "singlesPoints": 5826,
        "doublesPoints": 0,
        "bonusPoints": 2436
      }
    },
    {
      "name": "Allison Wang",
      "uaid": "2017129919",
      "city": "San Jose",
      "state": "CA",
      "trend": "no change",
      "points": 7526,
      "rank": {
        "national": 13,
        "section": 1,
        "district": 1
      },
      "section": {
        "name": "Northern California"
      },
      "district": {
        "name": "Northern California"
      },
      "pointsRecord": {
        "singlesPoints": 6175,
        "doublesPoints": 0,
        "bonusPoints": 1351
      }
    },
    {
      "name": "Enya Hamilton",
      "uaid": "2010700774",
      "city": "FRISCO",
      "state": "TX",
      "trend": "no change",
      "points": 7509,
      "rank": {
        "national": 14,
        "section": 1,
        "district": 1
      },
      "section": {
        "name": "Texas"
      },
      "district": {
        "name": "Member"
      },
      "pointsRecord": {
        "singlesPoints": 4907,
        "doublesPoints": 0,
        "bonusPoints": 2602
      }
    },
    {
      "name": "Hannah Ayrault",
      "uaid": "2017140471",
      "city": "BOCA RATON",
      "state": "FL",
      "trend": "no change",
      "points": 7245,
      "rank": {
        "national": 15,
        "section": 3,
        "district": 2
      },
      "section": {
        "name": "Southern"
      },
      "district": {
        "name": "Georgia"
      },
      "pointsRecord": {
        "singlesPoints": 4970,
        "doublesPoints": 0,
        "bonusPoints": 2275
      }
    },
    {
      "name": "Elle Groslimond",
      "uaid": "2017241813",
      "city": "Atlanta",
      "state": "GA",
      "trend": "no change",
      "points": 6967,
      "rank": {
        "national": 16,
        "section": 4,
        "district": 3
      },
      "section": {
        "name": "Southern"
      },
      "district": {
        "name": "Georgia"
      },
      "pointsRecord": {
        "singlesPoints": 5041,
        "doublesPoints": 0,
        "bonusPoints": 1926
      }
    },
    {
      "name": "Sofia Basto Cabrera",
      "uaid": "2018425835",
      "city": "Medford",
      "state": "NJ",
      "trend": "no change",
      "points": 6953,
      "rank": {
        "national": 17,
        "section": 1,
        "district": 1
      },
      "section": {
        "name": "Middle States"
      },
      "district": {
        "name": "New Jersey"
      },
      "pointsRecord": {
        "singlesPoints": 5253,
        "doublesPoints": 0,
        "bonusPoints": 1700
      }
    },
    {
      "name": "Caroline Coan",
      "uaid": "2010744454",
      "city": "Elmhurst",
      "state": "IL",
      "trend": "no change",
      "points": 6843,
      "rank": {
        "national": 18,
        "section": 1,
        "district": 1
      },
      "section": {
        "name": "Midwest"
      },
      "district": {
        "name": "Chicago"
      },
      "pointsRecord": {
        "singlesPoints": 5163,
        "doublesPoints": 0,
        "bonusPoints": 1680
      }
    },
    {
      "name": "Janae Preston",
      "uaid": "2017212529",
      "city": "Henderson",
      "state": "NV",
      "trend": "no change",
      "points": 6766,
      "rank": {
        "national": 19,
        "section": 1,
        "district": 1
      },
      "section": {
        "name": "Intermountain"
      },
      "district": {
        "name": "Nevada"
      },
      "pointsRecord": {
        "singlesPoints": 5471,
        "doublesPoints": 0,
        "bonusPoints": 1295
      }
    },
    {
      "name": "Oleana Zerres",
      "uaid": "2018103589",
      "city": "Farmingdale",
      "state": "NJ",
      "trend": "no change",
      "points": 6764,
      "rank": {
        "national": 20,
        "section": 2,
        "district": 2
      },
      "section": {
        "name": "Middle States"
      },
      "district": {
        "name": "New Jersey"
      },
      "pointsRecord": {
        "singlesPoints": 4988,
        "doublesPoints": 0,
        "bonusPoints": 1776
      }
    }
  ],
  "pagination": {
    "currentPage": 1,
    "pageSize": 20,
    "totalPages": 500,
    "totalResults": 10000
  }
}