{
  "catalogId": "JUNIOR_NULL_M_SEEDING_Y18_UNDER_SINGLES_NULL_NULL",
  "publishDate": "2026-04-22T09:13:52.001Z",
  "displayLabel": "Boys' 18 National Seeding List",
  "listType": "SEEDING",
  "playerType": "JUNIOR",
  "rankListGender": "M",
  "rankListGenderModifier": null,
  "playerLevel": "NULL",
  "ageRestriction": "Y18",
  "ageRestrictionModifier": "UNDER",
  "matchFormat": "SINGLES",
  "matchFormatType": null,
  "familyCategory": null,
  "data": [
    {
      "name": "Andrew Johnson",
      "uaid": "2010688342",
      "city": "Rancho Palos Verdes",
      "state": "CA",
      "trend": "no change",
      "points": 12529,
      "rank": {
        "national": 1,
        "section": 1,
        "district": 1
      },
      "section": {
        "name": "Southern California"
      },
      "district": {
        "name": "Southern California"
      },
      "pointsRecord": {
        "singlesPoints": 9758,
        "doublesPoints": 0,
        "bonusPoints": 2771
      }
    },
    {
      "name": "Michael Antonius",
      "uaid": "2010868976",
      "city": "Buffalo",
      "state": "NY",
      "trend": "no change",
      "points": 10630,
      "rank": {
        "national": 2,
        "section": 1,
        "district": 1
      },
      "section": {
        "name": "Eastern"
      },
      "district": {
        "name": "Western Region"
      },
      "pointsRecord": {
        "singlesPoints": 9075,
        "doublesPoints": 0,
        "bonusPoints": 1555
      }
    },
    {
      "name": "Alexander Suhanitski",
      "uaid": "2010788163",
      "city": "New Rochelle",
      "state": "NY",
      "trend": "no change",
      "points": 10508,
      "rank": {
        "national": 3,
        "section": 2,
        "district": 1
      },
      "section": {
        "name": "Eastern"
      },
      "district": {
        "name": "Southern Region"
      },
      "pointsRecord": {
        "singlesPoints": 8265,
        "doublesPoints": 0,
        "bonusPoints": 2243
      }
    },
    {
      "name": "Gus Grumet",
      "uaid": "2010444330",
      "city": "Mill Valley",
      "state": "CA",
      "trend": "no change",
      "points": 8775,
      "rank": {
        "national": 4,
        "section": 1,
        "district": 1
      },
      "section": {
        "name": "Northern California"
      },
      "district": {
        "name": "Northern California"
      },
      "pointsRecord": {
        "singlesPoints": 6600,
        "doublesPoints": 0,
        "bonusPoints": 2175
      }
    },
    {
      "name": "Omar Rhazali",
      "uaid": "2010528500",
      "city": "Stamford",
      "state": "CT",
      "trend": "no change",
      "points": 8505,
      "rank": {
        "national": 5,
        "section": 1,
        "district": 1
      },
      "section": {
        "name": "New England"
      },
      "district": {
        "name": "Connecticut"
      },
      "pointsRecord": {
        "singlesPoints": 6488,
        "doublesPoints": 0,
        "bonusPoints": 2017
      }
    },
    {
      "name": "Jesse Yang",
      "uaid": "2010677238",
      "city": "Fresh Meadows",
      "state": "NY",
      "trend": "no change",
      "points": 8496,
      "rank": {
        "national": 6,
        "section": 3,
        "district": 1
      },
      "section": {
        "name": "Eastern"
      },
      "district": {
        "name": "Metropolitan Region"
      },
      "pointsRecord": {
        "singlesPoints": 6075,
        "doublesPoints": 0,
        "bonusPoints": 2421
      }
    },
    {
      "name": "William Freshwater",
      "uaid": "2010509874",
      "city": "Naples",
      "state": "FL",
      "trend": "no change",
      "points": 8481,
      "rank": {
        "national": 7,
        "section": 1,
        "district": 1
      },
      "section": {
        "name": "Florida"
      },
      "district": {
        "name": "Region 7"
      },
      "pointsRecord": {
        "singlesPoints": 6046,
        "doublesPoints": 0,
        "bonusPoints": 2435
      }
    },
    {
      "name": "Ryan Cozad",
      "uaid": "2010532334",
      "city": "Alpharetta",
      "state": "GA",
      "trend": "no change",
      "points": 8380,
      "rank": {
        "national": 8,
        "section": 1,
        "district": 1
      },
      "section": {
        "name": "Southern"
      },
      "district": {
        "name": "Georgia"
      },
      "pointsRecord": {
        "singlesPoints": 7028,
        "doublesPoints": 0,
        "bonusPoints": 1352
      }
    },
    {
      "name": "Tanishk Konduri",
      "uaid": "2017031193",
      "city": "Cupertino",
      "state": "CA",
      "trend": "no change",
      "points": 8277,
      "rank": {
        "national": 9,
        "section": 2,
        "district": 2
      },
      "section": {
        "name": "Northern California"
      },
      "district": {
        "name": "Northern California"
      },
      "pointsRecord": {
        "singlesPoints": 6564,
        "doublesPoints": 0,
        "bonusPoints": 1713
      }
    },
    {
      "name": "David Wu",
      "uaid": "2010847029",
      "city": "San Diego",
      "state": "CA",
      "trend": "no change",
      "points": 7600,
      "rank": {
        "national": 10,
        "section": 2,
        "district": 1
      },
      "section": {
        "name": "Southern California"
      },
      "district": {
        "name": "San Diego"
      },
      "pointsRecord": {
        "singlesPoints": 5323,
        "doublesPoints": 0,
        "bonusPoints": 2277
      }
    },
    {
      "name": "Peter Jorniak",
      "uaid": "2010763406",
      "city": "Arcadia",
      "state": "CA",
      "trend": "no change",
      "points": 7380,
      "rank": {
        "national": 11,
        "section": 3,
        "district": 2
      },
      "section": {
        "name": "Southern California"
      },
      "district": {
        "name": "Southern California"
      },
      "pointsRecord": {
        "singlesPoints": 5858,
        "doublesPoints": 0,
        "bonusPoints": 1522
      }
    },
    {
      "name": "Michael Lorenzetti",
      "uaid": "2010365945",
      "city": "Milford",
      "state": "CT",
      "trend": "no change",
      "points": 7334,
      "rank": {
        "national": 12,
        "section": 2,
        "district": 2
      },
      "section": {
        "name": "New England"
      },
      "district": {
        "name": "Connecticut"
      },
      "pointsRecord": {
        "singlesPoints": 4800,
        "doublesPoints": 0,
        "bonusPoints": 2534
      }
    },
    {
      "name": "Yashwin Krishnakumar",
      "uaid": "2010654740",
      "city": "Dublin",
      "state": "CA",
      "trend": "no change",
      "points": 7318,
      "rank": {
        "national": 13,
        "section": 3,
        "district": 3
      },
      "section": {
        "name": "Northern California"
      },
      "district": {
        "name": "Northern California"
      },
      "pointsRecord": {
        "singlesPoints": 5471,
        "doublesPoints": 0,
        "bonusPoints": 1847
      }
    },
    {
      "name": "Ronit Karki",
      "uaid": "2010595314",
      "city": "East Brunswick",
      "state": "NJ",
      "trend": "no change",
      "points": 6981,
      "rank": {
        "national": 14,
        "section": 4,
        "district": 1
      },
      "section": {
        "name": "Eastern"
      },
      "district": {
        "name": "New Jersey Region"
      },
      "pointsRecord": {
        "singlesPoints": 6000,
        "doublesPoints": 0,
        "bonusPoints": 981
      }
    },
    {
      "name": "Soren Swenson",
      "uaid": "2010780768",
      "city": "Saint Paul",
      "state": "MN",
      "trend": "no change",
      "points": 6749,
      "rank": {
        "national": 15,
        "section": 1,
        "district": 1
      },
      "section": {
        "name": "Northern"
      },
      "district": {
        "name": "Member"
      },
      "pointsRecord": {
        "singlesPoints": 5208,
        "doublesPoints": 0,
        "bonusPoints": 1541
      }
    },
    {
      "name": "Dylan Varughese",
      "uaid": "2017037417",
      "city": "Houston",
      "state": "TX",
      "trend": "no change",
      "points": 6370,
      "rank": {
        "national": 16,
        "section": 1,
        "district": 1
      },
      "section": {
        "name": "Texas"
      },
      "district": {
        "name": "Member"
      },
      "pointsRecord": {
        "singlesPoints": 5153,
        "doublesPoints": 0,
        "bonusPoints": 1217
      }
    },
    {
      "name": "Micah Ward",
      "uaid": "2010548421",
      "city": "Lawrence",
      "state": "KS",
      "trend": "no change",
      "points": 6300,
      "rank": {
        "national": 17,
        "section": 1,
        "district": 1
      },
      "section": {
        "name": "Missouri Valley"
      },
      "district": {
        "name": "Heart of America"
      },
      "pointsRecord": {
        "singlesPoints": 4689,
        "doublesPoints": 0,
        "bonusPoints": 1611
      }
    },
    {
      "name": "Marcel Latak",
      "uaid": "2010620680",
      "city": "Darien",
      "state": "IL",
      "trend": "no change",
      "points": 6297,
      "rank": {
        "national": 18,
        "section": 1,
        "district": 1
      },
      "section": {
        "name": "Midwest"
      },
      "district": {
        "name": "Chicago"
      },
      "pointsRecord": {
        "singlesPoints": 4951,
        "doublesPoints": 0,
        "bonusPoints": 1346
      }
    },
    {
      "name": "Gavin Goode",
      "uaid": "2010520039",
      "city": "Raleigh",
      "state": "NC",
      "trend": "no change",
      "points": 6230,
      "rank": {
        "national": 19,
        "section": 2,
        "district": 1
      },
      "section": {
        "name": "Southern"
      },
      "district": {
        "name": "North Carolina"
      },
      "pointsRecord": {
        "singlesPoints": 5160,
        "doublesPoints": 0,
        "bonusPoints": 1070
      }
    },
    {
      "name": "Noble Renfrow",
      "uaid": "2010189111",
      "city": "Winter Park",
      "state": "FL",
      "trend": "no change",
      "points": 6207,
      "rank": {
        "national": 20,
        "section": 2,
        "district": 1
      },
      "section": {
        "name": "Florida"
      },
      "district": {
        "name": "Region 4"
      },
      "pointsRecord": {
        "singlesPoints": 4947,
        "doublesPoints": 0,
        "bonusPoints": 1260
      }
    }
  ],
  "pagination": {
    "currentPage": 1,
    "pageSize": 20,
    "totalPages": 500,
    "totalResults": 10000
  }
}